<?xml version="1.0" encoding="utf-8"?>
<!-- Generator: Adobe Illustrator 24.2.0, SVG Export Plug-In . SVG Version: 6.00 Build 0)  -->
<svg version="1.1" id="Livello_1" xmlns="http://www.w3.org/2000/svg" xmlns:xlink="http://www.w3.org/1999/xlink" x="0px" y="0px"
	 viewBox="0 0 595.3 841.9" style="enable-background:new 0 0 595.3 841.9;" xml:space="preserve">
<style type="text/css">
	.st0{fill:#FFFFFF;stroke:#000000;stroke-miterlimit:10;}
	.st1{fill:none;stroke:#000000;stroke-miterlimit:10;}
	.st2{font-family:'HarryP';}
	.st3{font-size:18px;}
	.st4{fill:#3AAA35;}
	.st5{font-size:14px;}
	.st6{fill:#E30613;}
	.st7{fill:none;}
</style>
<rect x="435.5" y="362.9" class="st0" width="137.5" height="111.3"/>
<g>
	<g>
		<path class="st1" d="M199,279.3c-0.3,3.2-0.8,5.3-0.8,11.3c0,9.2,1.1,9.2,1.1,18.3c0,9.2-1.1,9.2-1.1,18.3c0,9.2,1.1,9.2,1.1,18.3
			c0,9.2-1.1,9.2-1.1,18.3c0,9.2,1.1,9.2,1.1,18.3c0,9.2-1.1,9.2-1.1,18.3c0,9.2,1.1,9.2,1.1,18.3c0,9.2-1.1,9.2-1.1,18.3
			c0,9.2,1.1,9.2,1.1,18.3c0,9.2-1.1,9.2-1.1,18.3c0,9.2,1.1,9.2,1.1,18.3c0,9.2-1.1,9.2-1.1,18.3c0,9.2,1.1,9.2,1.1,18.3
			c0,9.2-1.1,9.2-1.1,18.3c0,8.2,0.9,9.1,1.1,15.7"/>
		<g>
			<polygon points="199.4,272.2 194.8,282 198.9,279.8 202.9,282.4 			"/>
		</g>
		<g>
			<polygon points="199.4,569.9 195.2,560 199.3,562.3 203.3,559.9 			"/>
		</g>
	</g>
</g>
<g>
	<g>
		<path class="st1" d="M57,421.1c3.3,0.3,5.4,0.8,11.5,0.8c9.3,0,9.3-1.1,18.6-1.1c9.3,0,9.3,1.1,18.6,1.1c9.3,0,9.3-1.1,18.6-1.1
			c9.3,0,9.3,1.1,18.6,1.1c9.3,0,9.3-1.1,18.6-1.1c9.3,0,9.3,1.1,18.6,1.1c9.3,0,9.3-1.1,18.6-1.1c9.3,0,9.3,1.1,18.6,1.1
			c9.3,0,9.3-1.1,18.6-1.1c9.3,0,9.3,1.1,18.6,1.1c9.3,0,9.3-1.1,18.6-1.1c9.3,0,9.3,1.1,18.6,1.1c9.3,0,9.3-1.1,18.6-1.1
			c9.3,0,9.3,1.1,18.6,1.1c6.1,0,8.2-0.5,11.6-0.8"/>
		<g>
			<polygon points="50,420.8 59.7,425.4 57.6,421.2 60.1,417.3 			"/>
		</g>
		<g>
			<polygon points="347.6,420.8 337.9,425.4 340,421.2 337.5,417.3 			"/>
		</g>
	</g>
</g>
<text transform="matrix(1 0 0 1 351.4305 426.2996)" class="st2 st3">Friendly</text>
<text transform="matrix(1 0 0 1 174.0917 585.0539)" class="st2 st3">Submissive</text>
<text transform="matrix(1 0 0 1 176.0125 269.9996)" class="st2 st3">Dominant</text>
<text transform="matrix(1 0 0 1 11.9396 427.9629)" class="st2 st3">Hostile</text>
<circle class="st4" cx="285.3" cy="474.7" r="9.9"/>
<text transform="matrix(1.1528 0 0 1 279.5671 479.1152)" class="st2 st5">M</text>
<circle class="st4" cx="463.1" cy="389.7" r="9.9"/>
<circle class="st6" cx="463.1" cy="419" r="9.9"/>
<text transform="matrix(1.142 0 0 1 458.22 423.4859)" class="st2 st5">M</text>
<text transform="matrix(1 0 0 1 460.7741 448.5318)" class="st2 st5">A</text>
<text transform="matrix(1 0 0 1 483.5281 422.6691)" class="st2 st5">Evil Minerva</text>
<text transform="matrix(1 0 0 1 481.7822 448.5323)" class="st2 st5">Albus Dumbledore</text>
<rect x="544.6" y="447.9" class="st7" width="14.4" height="0"/>
<circle class="st6" cx="156.7" cy="445.3" r="9.9"/>
<text transform="matrix(1.1528 0 0 1 150.9214 449.7244)" class="st2 st5">M</text>
<text transform="matrix(1 0 0 1 458.2196 393.0511)" class="st2 st5">M</text>
<text transform="matrix(1 0 0 1 480.4731 393.8144)" class="st2 st5">Good Minerva</text>
<text transform="matrix(1 0 0 1 458.9511 468.2199)" class="st2 st5">L</text>
<text transform="matrix(1 0 0 1 479.9592 468.2203)" class="st2 st5">Laura Cawley</text>
<circle class="st4" cx="239.8" cy="457" r="9.9"/>
<text transform="matrix(1.1528 0 0 1 236.4147 459.52)" class="st2 st5">L</text>
<circle class="st4" cx="298.2" cy="383.1" r="9.9"/>
<text transform="matrix(1.1528 0 0 1 292.4202 387.4628)" class="st2 st5">A</text>
</svg>
